F:\eclipse-EE-workspace\SimpleGUI-assignment4\src\SimpleOperations\src\controller\SimpleOperationsCallbackHandler.java
F:\eclipse-EE-workspace\SimpleGUI-assignment4\src\Main.java
F:\eclipse-EE-workspace\SimpleGUI-assignment4\src\SimpleOperations\src\controller\SimpleOperationsStub.java
